[
    {
        "id"     : 2,
        "title"  : "Did you know that there are more trees on Earth than there is stars in the Milky Way ?",
        "date"   : "20/02/2016",
        "content": "Stars as lorem ipsum dolor sit amet, <a href=\"#\">consectetur</a> adipisicing elit, sed do eiusmod tempor incididunt ut labore et dolore magna aliqua. Ut enim ad minim veniam, quis nostrud exercitation ullamco laboris nisi ut aliquip ex ea commodo <strong>consequat</strong>. As voluptate velit esse cillum dolore eu fugiat nulla pariatur. Excepteur sint occaecat cupidatat non proident, sunt in culpa qui officia deserunt mollit anim id est laborum.",
        "author" : {
            "name" : "John Shepard",
            "id"   : 1
        },
        "tags"   : ["Ecology", "Space", "Science", "WOW!"]
    },
    {
        "id"     : 5,
        "title"  : "How USB 3.6 is gonna change the world, and why you should prepare yourself",
        "date"   : "14/05/2016",
        "content": "The world <a href=\"#\">duis aute irure dolor</a> in reprehenderit in voluptate velit esse cillum dolore eu fugiat nulla pariatur. Excepteur sint occaecat cupidatat non proident, consectetur adipisicing elit, sed do eiusmod tempor incididunt",
        "author" : {
            "name" : "Donan Coyle",
            "id"   : 4
        },
        "tags"  : ["Software", "Digital Revolution", "Once upon a life", "Technology"]
    },
    {
        "id"     : 3,
        "title"  : "Top 7 of the cutest kittens on the web. Number 4 will surprise you !",
        "date"   : "25/11/2016",
        "content": "They're fluffy, they're cutes, they're purrfect ! <ol><li>Lorem ipcat</li><li>Ipkitten dolem</li><li>Duis aure garfieldt</li><li>Ut enim ipcat</li><li>Just ipcat</li><li>Dolor cat amet</li><li>Zat cat</li></ol>",
        "author" : {
            "name" : "Timothy Zann",
            "id"   : 3
        },
        "tags"  : ["Top lists", "Cats", "Sponsored"]
    },
    {
        "id"     : 0,
        "title"  : "In ReactJS we trust",
        "date"   : "3/6/2017",
        "content": "Trusting react es lorem ipsum dolor sit amet, consectetur adipisicing elit, sed do eiusmod tempor incididunt ut labore et dolore magna aliqua. Ut enim ad minim veniam, quis nostrud exercitation ullamco laboris nisi ut aliquip ex ea commodo consequat. Duis aute irure dolor in reprehenderit in voluptate velit esse cillum dolore eu fugiat nulla pariatur. Excepteur sint occaecat cupidatat non proident, sunt in culpa qui officia deserunt mollit anim id est laborum.",
        "author" : {
            "name" : "Arnold Jiès",
            "id"   : 2
        },
        "tags"  : ["Frameworks", "JS", "React", "Technology"]
    },
    {
        "id"     : 1,
        "title"  : "Pluto is NOT a planet anymore!",
        "date"   : "14/5/2014",
        "content": "Planet es es lorem ipsum dolor sit amet, consectetur adipisicing elit, sed do eiusmod tempor incididunt ut labore et dolore magna aliqua. Ut enim ad minim veniam, quis nostrud exercitation ullamco laboris nisi ut aliquip ex ea commodo consequat. Duis aute irure dolor in reprehenderit in voluptate velit esse cillum dolore eu fugiat nulla pariatur. Excepteur sint occaecat cupidatat non proident, sunt in culpa qui officia deserunt mollit anim id est laborum.",
        "author" : {
            "name" : "Donan Coyle",
            "id"   : 4
        },
        "tags"  : ["Astronomy", "Sad facts", "Science"]
    }
]
